{
  "meta": {
    "slug": "silhouette-cameo-3-fr",
    "title": "Silhouette CAMEO 3",
    "subTitle": " ",
    "type": "guide",
    "productId": "",
    "update": "2019-11-07",
    "language": "fr",
    "signature": "AQ"
  },
  "sections": [
    {
      "heading": "Dessiner",
      "text": "",
      "isNumbered": true,
      "steps": [
        {
          "text": "Ouvrir <em>Silouhette Studio</em> sur l'ordinateur",
          "isOption": false,
          "isNote": false,
          "image": ""
        },
        {
          "text": "Dans l'onglet **Design**, charger ou dessiner le modèle que vous souhaitez transmettre à la machine.",
          "isOption": false,
          "isNote": false,
          "image": ""
        },
        {
          "text": "Dans l'onglet **Envoyer**, configurer les paramètres: matériau, action et outil.",
          "isOption": false,
          "isNote": false,
          "image": ""
        }
      ]
    },
    {
      "heading": "Préparer la machine",
      "text": "",
      "isNumbered": "true",
      "steps":[
        {
          "text": "Allumer  la machine",
          "isOption": false,
          "isNote": false,
          "image": ""
        },
        {
          "text": "Sélectionner la lame appropriée ou le support pour crayon (selon ce que vous avez configuré auparavant)",
          "isOption": false,
          "isNote": false,
          "image": "silhouette-cameo-3-cut-setting.png"
        },
        {
          "text": "Le réglage des différents types de lames s'exécute de différentes façons selon la lame et le support choisi. Sur Silhouette Studio, consultez les recommandations pour les différents matériaux dans l'onglet </em>envoyer</em>.",
          "isOption": false,
          "isNote": true,
          "image": "silhouette-cameo-3-material.png"
        },
        {
          "text": "Insérer la lame ou le support pour crayon dans son logement",
          "isOption": false,
          "isNote": false,
          "image": "silhouette-cameo-3-insert-blade.png"
        },
        {
          "text": "Placer le matériau choisi sur le support (plastique autocollant avec protection bleue)",
          "isOption": false,
          "isNote": false,
          "image": ""
        },
        {
          "text": "Décoller la feuille de protection bleue",
          "isOption": false,
          "isNote": false,
          "image": "silhouette-cameo-3-blue-sheet.png.png"
        },
        {
          "text": "Insérer le support dans la machine en l'alignant sur les flèches de gauche.",
          "isOption": false,
          "isNote": false,
          "image": "silhouette-cameo-3-support-align.jpg"
        },
        {
          "text": "Sélectionner **Charger** sur l'écran tactile de la machine.",
          "isOption": false,
          "isNote": false,
          "image": ""
        }
      ]
    },
    {
      "heading": "Imprimer",
      "text": "",
      "isNumbered": true,
      "steps": [
        {
          "text": "Sur silhouette studio, cliquer sur **Envoyer**.",
          "isOption": false,
          "isNote": false,
          "image": ""
        },
        {
          "text": "Une fois le travail terminé, sélectionner **Décharger** sur l'écran tactile de la machine.",
          "isOption": false,
          "isNote": false,
          "image": ""
        }
      ]
    },
    {
      "heading": "Remettre en état",
      "text": "",
      "isNumbered": true,
      "steps": [
        {
          "text": "Sortir la lame ou le support à crayon de la machine.",
          "isOption": false,
          "isNote": false,
          "image": ""
        },
        {
          "text": "Éteindre la machine et fermer Silouhette Studio.",
          "isOption": false,
          "isNote": false,
          "image": ""
        }
      ]
    }
  ]
}
